<svg xmlns="http://www.w3.org/2000/svg" xmlns:xlink="http://www.w3.org/1999/xlink" style="isolation:isolate" viewBox="0 0 21 11">
        <path d=" M 1 1 L 10.5 10 L 20 1" fill="none" vector-effect="non-scaling-stroke" stroke-width="1" stroke="rgb(151,151,151)"
            stroke-linejoin="miter" stroke-linecap="square" stroke-miterlimit="3" />
</svg>
