<svg xmlns="http://www.w3.org/2000/svg" viewBox="0 0 23 23">
    <g fill="#358EF5" fill-rule="nonzero">
        <path d="M1.1 17.2c-.3 0-.5.2-.5.5v.5c0 .3.2.5.5.5h.5c.3 0 .5-.2.5-.5v-.5c0-.3-.2-.5-.5-.5h-.5zM5.2 17.2c-.3 0-.5.2-.5.5v.5c0 .3.2.5.5.5h.5c.3 0 .5-.2.5-.5v-.5c0-.3-.2-.5-.5-.5h-.5zM9.2 18.7h.5c.3 0 .5-.2.5-.5v-.5c0-.3-.2-.5-.5-.5h-.5c-.3 0-.5.2-.5.5v.5c0 .3.2.5.5.5zM5.7 8.3h-.5c-.3 0-.5.2-.5.5v.5c0 .3.2.5.5.5h.5c.3 0 .5-.2.5-.5v-.5c0-.3-.3-.5-.5-.5z"/>
        <path d="M9.8 9.2v-.5c0-2.4-2-4.4-4.4-4.4C3 4.3 1 6.3 1 8.8v.4c0 1.8 1.4 3.5 2.6 4.7.2.2 1.5 1.4 1.9 1.4.5 0 4.3-2.9 4.3-6.1zm-4.3 5c-.9-.6-3.5-3-3.5-5v-.4c0-1.9 1.5-3.5 3.5-3.5 1.9 0 3.4 1.5 3.4 3.4v.5c-.1 2.3-2.6 4.5-3.4 5zM1.1 1.7H22c.3 0 .5-.2.5-.5s-.2-.5-.5-.5H1.1C.8.7.6.9.6 1.2s.2.5.5.5zM21.9 21.4H1.1c-.3 0-.5.2-.5.5s.2.5.5.5H22c.3 0 .5-.2.5-.5s-.3-.5-.6-.5zM20.8 7.9c0-1.8-1.4-3.2-3.2-3.2-1.8 0-3.2 1.4-3.2 3.2 0 1.8 1.4 3.2 3.2 3.2 1.8 0 3.2-1.4 3.2-3.2zm-5.4 0c0-1.2 1-2.2 2.2-2.2 1.2 0 2.2 1 2.2 2.2 0 1.2-1 2.2-2.2 2.2-1.2 0-2.2-1-2.2-2.2zM12.9 18.2c0 .3.2.5.5.5s.5-.2.5-.5c0-2.1 1.7-3.8 3.8-3.8 2.1 0 3.8 1.7 3.8 3.8 0 .3.2.5.5.5s.5-.2.5-.5c0-2.6-2.1-4.8-4.8-4.8-2.7 0-4.8 2.2-4.8 4.8z"/>
    </g>
</svg>
